<?xml version="1.0" encoding="UTF-8"?>
<svg id="color_claim_R-color" data-name="color+claim R-color" xmlns="http://www.w3.org/2000/svg" viewBox="0 0 664.61 169.82">
  <defs>
    <style>
      .cls-1 {
        fill: #254261;
      }

      .cls-2 {
        fill: #c73630;
      }

      .cls-3 {
        fill: none;
      }
    </style>
  </defs>
  <g id="Bodyleasing">
    <g>
      <g>
        <path class="cls-2" d="m86.03,74.71c0,1.15-.2,2.39-.59,3.71s-1.05,2.55-1.95,3.68c-.9,1.13-2.07,2.07-3.51,2.83-1.44.76-3.21,1.14-5.3,1.14h-35.57c-.67,0-1.3-.12-1.87-.36-.58-.24-1.08-.57-1.5-.99-.42-.42-.75-.92-.99-1.5-.24-.58-.36-1.2-.36-1.87v-42.24c0-.65.12-1.26.36-1.84s.57-1.08.99-1.51.92-.77,1.5-1.01,1.2-.36,1.87-.36h31.35c1.15,0,2.39.2,3.71.61,1.32.41,2.55,1.06,3.69,1.96,1.14.9,2.09,2.07,2.85,3.51.76,1.44,1.14,3.21,1.14,5.3v1.77c0,1.66-.28,3.44-.83,5.35-.55,1.91-1.44,3.72-2.67,5.42,1.06.65,2.05,1.43,2.97,2.34.92.91,1.74,1.97,2.43,3.17.7,1.2,1.25,2.56,1.66,4.07.41,1.51.61,3.18.61,5.01v1.8Zm-9.37-1.8c0-1.23-.19-2.32-.58-3.3-.38-.97-.92-1.81-1.62-2.5s-1.54-1.23-2.52-1.6c-.99-.37-2.09-.56-3.32-.56h-21.12v-9.44h16.9c1.23,0,2.33-.19,3.32-.56s1.83-.91,2.52-1.6,1.23-1.53,1.6-2.5c.37-.97.56-2.07.56-3.3v-1.77c0-1.35-.65-2.02-1.95-2.02h-26.7v32.94h30.92c.17,0,.37-.01.61-.04s.46-.1.65-.22.36-.32.5-.61.22-.68.22-1.19v-1.73Z"/>
        <g>
          <path class="cls-2" d="m135.96,35.29c-.69-.28-1.38-.52-2.1-.73-5.31,1.56-10.13,4.53-14.01,8.48h7.51c1.8,0,3.45.29,4.96.88,1.5.59,2.79,1.42,3.86,2.49s1.9,2.35,2.49,3.86c.59,1.5.88,3.18.88,5.03v9.87c0,1.85-.29,3.53-.88,5.03-.59,1.5-1.42,2.79-2.5,3.86-1.08,1.07-2.37,1.9-3.87,2.49-1.5.59-3.17.88-4.99.88h-12.61c-1.29,0-2.5-.15-3.63-.44.66,3.39,1.66,6.67,2.93,9.8.24,0,.46,0,.7,0h12.69c3.1,0,5.96-.53,8.59-1.6,2.63-1.07,4.91-2.56,6.83-4.49,1.92-1.92,3.42-4.2,4.5-6.85,1.08-2.64,1.62-5.54,1.62-8.68v-9.87c0-3.12-.54-6.01-1.62-8.67-1.08-2.65-2.58-4.94-4.5-6.85-1.92-1.91-4.2-3.41-6.83-4.49Z"/>
          <path class="cls-1" d="m106.34,74.53c-.18-.15-.36-.32-.52-.48-1.08-1.07-1.92-2.35-2.5-3.86-.59-1.5-.88-3.18-.88-5.03v-9.87c0-1.85.29-3.53.88-5.03.59-1.5,1.42-2.79,2.5-3.86s2.37-1.9,3.87-2.49c1.36-.53,2.88-.82,4.51-.87,3.03-3.8,6.75-7,10.94-9.38h-10.46c-3.1,0-5.97.54-8.61,1.62-2.64,1.08-4.93,2.58-6.85,4.49-1.92,1.91-3.43,4.19-4.52,6.85-1.09,2.65-1.64,5.54-1.64,8.67v9.87c0,3.15.55,6.04,1.64,8.68,1.09,2.64,2.6,4.93,4.52,6.85,1.92,1.92,4.2,3.42,6.85,4.49,1,.4,2.05.74,3.12.99-1.33-3.72-2.3-7.62-2.85-11.64Z"/>
        </g>
        <path class="cls-2" d="m207.59,64.44c0,3.15-.55,6.04-1.64,8.68-1.09,2.64-2.6,4.92-4.52,6.83-1.92,1.91-4.2,3.41-6.85,4.49-2.64,1.08-5.51,1.62-8.61,1.62h-25.3c-.67,0-1.3-.12-1.87-.36s-1.08-.57-1.5-.99c-.42-.42-.75-.92-.99-1.5-.24-.58-.36-1.2-.36-1.87v-42.24c0-.65.12-1.26.36-1.84s.57-1.08.99-1.51c.42-.43.92-.77,1.5-1.01.58-.24,1.2-.36,1.87-.36h25.3c3.1,0,5.97.54,8.61,1.62,2.64,1.08,4.93,2.58,6.85,4.49,1.92,1.91,3.43,4.19,4.52,6.85,1.09,2.65,1.64,5.54,1.64,8.67v8.43Zm-9.37-8.43c0-1.83-.29-3.5-.88-5.01-.59-1.51-1.42-2.8-2.5-3.87s-2.37-1.9-3.87-2.49c-1.5-.59-3.17-.88-4.99-.88h-20.65v32.94h20.65c1.83,0,3.49-.29,4.99-.88,1.5-.59,2.79-1.42,3.87-2.49,1.08-1.07,1.92-2.35,2.5-3.86.59-1.5.88-3.18.88-5.03v-8.43Z"/>
        <path class="cls-2" d="m266.31,51.69c0,2.14-.27,4.05-.81,5.73-.54,1.68-1.26,3.17-2.14,4.45-.89,1.29-1.93,2.38-3.12,3.3-1.19.91-2.42,1.66-3.69,2.25-1.27.59-2.56,1.02-3.87,1.28-1.31.26-2.54.4-3.69.4h-3.78v16.97h-9.44v-16.97h-3.75c-1.15,0-2.38-.13-3.69-.4-1.31-.26-2.61-.69-3.89-1.28-1.29-.59-2.52-1.34-3.69-2.25-1.18-.91-2.22-2.01-3.12-3.3-.9-1.29-1.62-2.77-2.16-4.47-.54-1.69-.81-3.6-.81-5.71v-17.3h9.37v17.3c0,1.23.19,2.32.58,3.3.38.97.92,1.81,1.62,2.5.7.7,1.54,1.23,2.54,1.6,1,.37,2.11.56,3.33.56h16.9c.89-.14,1.8-.33,2.74-.56.94-.23,1.79-.62,2.56-1.17.77-.55,1.41-1.32,1.91-2.31.5-.99.76-2.29.76-3.93v-17.3h9.37v17.3Z"/>
      </g>
      <g>
        <path class="cls-1" d="m320.8,86.06h-42.74c-.67,0-1.3-.12-1.87-.36-.58-.24-1.08-.57-1.5-.99-.42-.42-.75-.92-.99-1.5-.24-.58-.36-1.2-.36-1.87v-46.96h9.37v42.31h38.09v9.37Z"/>
        <path class="cls-1" d="m374.76,86.06h-33.8c-1.3,0-2.71-.23-4.25-.68-1.54-.46-2.96-1.21-4.27-2.25-1.31-1.05-2.4-2.4-3.28-4.07-.88-1.67-1.32-3.72-1.32-6.14v-33.8c0-.65.12-1.26.36-1.84.24-.58.57-1.08.99-1.51.42-.43.92-.77,1.5-1.01s1.2-.36,1.87-.36h42.2v9.37h-37.55v29.15c0,1.23.32,2.16.97,2.81.65.65,1.6.97,2.85.97h33.73v9.37Zm-4.22-21.12h-29.59v-9.44h29.59v9.44Z"/>
        <path class="cls-1" d="m433.71,86.06h-9.37v-12.69h-32.94v12.69h-9.37v-25.84c0-3.77.65-7.24,1.95-10.41,1.3-3.17,3.1-5.9,5.41-8.18,2.31-2.28,5.03-4.06,8.18-5.33,3.15-1.27,6.58-1.91,10.31-1.91h21.12c.65,0,1.26.12,1.84.36s1.08.58,1.51,1.01c.43.43.77.94,1.01,1.51s.36,1.19.36,1.84v46.96Zm-42.31-22.05h32.94v-20.25h-16.47c-.29,0-.89.04-1.82.13-.92.08-1.99.29-3.21.63-1.21.34-2.49.85-3.84,1.55-1.35.7-2.58,1.66-3.71,2.88-1.13,1.23-2.06,2.76-2.79,4.59-.73,1.84-1.1,4.07-1.1,6.68v3.78Z"/>
        <path class="cls-1" d="m491.78,70.86c0,1.85-.23,3.51-.7,4.99-.47,1.48-1.09,2.78-1.86,3.91-.77,1.13-1.67,2.09-2.7,2.88-1.03.79-2.1,1.44-3.21,1.95-1.11.5-2.23.88-3.37,1.12-1.14.24-2.22.36-3.23.36h-36.15v-9.37h36.15c1.8,0,3.2-.53,4.2-1.59,1-1.06,1.5-2.47,1.5-4.25,0-.86-.13-1.66-.4-2.38-.26-.72-.64-1.35-1.14-1.87s-1.09-.94-1.8-1.23-1.5-.43-2.36-.43h-21.55c-1.51,0-3.15-.27-4.9-.81-1.75-.54-3.38-1.41-4.88-2.61-1.5-1.2-2.75-2.77-3.75-4.72-1-1.95-1.5-4.32-1.5-7.14s.5-5.18,1.5-7.12c1-1.93,2.25-3.51,3.75-4.72,1.5-1.21,3.13-2.09,4.88-2.63,1.75-.54,3.39-.81,4.9-.81h31.89v9.37h-31.89c-1.78,0-3.17.54-4.16,1.62-1,1.08-1.5,2.51-1.5,4.29s.5,3.23,1.5,4.27c1,1.05,2.38,1.57,4.16,1.57h21.62c1.01.02,2.08.16,3.21.41,1.13.25,2.25.64,3.37,1.17,1.12.53,2.18,1.2,3.19,2,1.01.8,1.9,1.77,2.68,2.9.78,1.13,1.4,2.43,1.86,3.89.46,1.47.68,3.12.68,4.97Z"/>
        <path class="cls-1" d="m510.52,86.06h-9.37v-51.68h9.37v51.68Z"/>
        <path class="cls-1" d="m571.52,82.06c0,.67-.13,1.3-.38,1.87-.25.58-.59,1.08-1.01,1.5-.42.42-.92.75-1.5.99-.58.24-1.19.36-1.84.36-.58,0-1.16-.11-1.75-.32-.59-.22-1.11-.56-1.57-1.05l-34.24-35.75v36.4h-9.37v-47.68c0-.96.27-1.83.81-2.61.54-.78,1.23-1.36,2.07-1.75.89-.36,1.8-.45,2.74-.27.94.18,1.74.62,2.41,1.32l34.24,35.71v-36.4h9.37v47.68Z"/>
        <path class="cls-1" d="m630.22,81.34c0,.67-.12,1.3-.36,1.87-.24.58-.57,1.08-.99,1.5-.42.42-.92.75-1.5.99-.58.24-1.2.36-1.87.36h-33.8c-.86,0-1.8-.1-2.79-.31-1-.2-1.98-.52-2.96-.95-.97-.43-1.9-.99-2.79-1.68-.89-.68-1.68-1.51-2.36-2.49-.68-.97-1.23-2.1-1.64-3.39-.41-1.29-.61-2.73-.61-4.34v-25.37c0-.86.1-1.8.31-2.79.2-1,.52-1.98.95-2.96.43-.97,1-1.9,1.69-2.79.7-.89,1.53-1.68,2.5-2.36.97-.68,2.1-1.23,3.37-1.64,1.27-.41,2.71-.61,4.32-.61h38.09v9.37h-38.09c-1.23,0-2.16.32-2.81.97s-.97,1.61-.97,2.88v25.3c0,1.2.33,2.13.99,2.79.66.66,1.59.99,2.79.99h29.15v-11.75h-24.94v-9.44h29.59c.67,0,1.3.13,1.87.38.58.25,1.08.59,1.5,1.03.42.43.75.93.99,1.5.24.56.36,1.17.36,1.82v21.12Z"/>
      </g>
    </g>
    <rect id="Safezone" class="cls-3" x="0" width="664.61" height="120.45"/>
  </g>
  <g>
    <g>
      <g>
        <path class="cls-1" d="m389.52,135.43h-19.9c-.76,0-1.6-.13-2.5-.4s-1.74-.71-2.51-1.33-1.41-1.41-1.93-2.4-.77-2.19-.77-3.62v-19.9c0-.38.07-.74.21-1.08s.34-.64.58-.89.54-.45.88-.59.71-.21,1.1-.21h24.84v5.51h-22.1v17.16c0,.72.19,1.27.57,1.65s.94.57,1.68.57h19.85v5.51Zm-2.48-12.43h-17.41v-5.56h17.41v5.56Z"/>
        <path class="cls-1" d="m424.13,133.07c0,.4-.07.76-.22,1.1s-.35.63-.59.88-.54.44-.88.58-.7.21-1.08.21c-.34,0-.68-.06-1.03-.19s-.65-.33-.92-.62l-20.15-21.04v21.42h-5.51v-28.06c0-.57.16-1.08.48-1.54s.72-.8,1.22-1.03c.52-.21,1.06-.27,1.61-.16s1.03.36,1.42.77l20.15,21.02v-21.42h5.51v28.06Z"/>
        <path class="cls-1" d="m458.73,122.7c0,1.85-.32,3.56-.97,5.11-.64,1.56-1.53,2.9-2.66,4.02-1.13,1.12-2.47,2-4.03,2.64-1.56.64-3.25.95-5.07.95h-14.89c-.4,0-.76-.07-1.1-.21s-.63-.34-.88-.58-.44-.54-.58-.88-.21-.71-.21-1.1v-24.86c0-.38.07-.74.21-1.08s.34-.64.58-.89.54-.45.88-.59.71-.21,1.1-.21h14.89c1.82,0,3.51.32,5.07.95,1.56.64,2.9,1.52,4.03,2.64s2.02,2.47,2.66,4.03.97,3.26.97,5.1v4.96Zm-5.51-4.96c0-1.07-.17-2.06-.52-2.95-.35-.89-.84-1.65-1.47-2.28s-1.4-1.12-2.28-1.46c-.88-.35-1.86-.52-2.94-.52h-12.15v19.39h12.15c1.07,0,2.05-.17,2.94-.52.88-.35,1.64-.83,2.28-1.46s1.13-1.39,1.47-2.27c.35-.88.52-1.87.52-2.96v-4.96Z"/>
        <path class="cls-1" d="m493.28,115.19c0,1.26-.16,2.38-.48,3.37s-.74,1.86-1.26,2.62-1.13,1.4-1.83,1.94-1.42.98-2.17,1.33c-.75.35-1.51.6-2.28.75s-1.5.23-2.17.23h-2.23v9.99h-5.56v-9.99h-2.21c-.68,0-1.4-.08-2.17-.23s-1.53-.41-2.29-.75c-.76-.35-1.48-.79-2.17-1.33s-1.3-1.18-1.83-1.94-.95-1.63-1.27-2.63c-.32-1-.48-2.12-.48-3.36v-10.18h5.51v10.18c0,.72.11,1.37.34,1.94s.54,1.06.95,1.47.91.72,1.5.94,1.24.33,1.96.33h9.95c.52-.08,1.06-.19,1.61-.33s1.05-.36,1.51-.69.83-.78,1.12-1.36.45-1.35.45-2.31v-10.18h5.51v10.18Z"/>
      </g>
      <g>
        <path class="cls-2" d="m527.56,126.48c0,1.09-.14,2.07-.41,2.94s-.64,1.64-1.09,2.3-.98,1.23-1.59,1.7-1.24.85-1.89,1.15-1.31.52-1.98.66-1.3.21-1.9.21h-21.27v-5.51h21.27c1.06,0,1.88-.31,2.47-.93s.88-1.46.88-2.5c0-.51-.08-.98-.23-1.4s-.38-.79-.67-1.1-.64-.55-1.06-.72-.88-.25-1.39-.25h-12.68c-.89,0-1.85-.16-2.88-.48-1.03-.32-1.99-.83-2.87-1.54-.88-.71-1.62-1.63-2.21-2.78-.59-1.15-.88-2.55-.88-4.2s.29-3.05.88-4.19c.59-1.14,1.32-2.06,2.21-2.78s1.84-1.23,2.87-1.55,1.99-.48,2.88-.48h18.77v5.51h-18.77c-1.05,0-1.86.32-2.45.95s-.88,1.48-.88,2.52.29,1.9.88,2.51,1.4.92,2.45.92h12.73c.59.01,1.22.1,1.89.24s1.33.38,1.98.69c.66.31,1.28.7,1.88,1.18s1.12,1.04,1.58,1.71c.46.66.82,1.43,1.09,2.29s.4,1.84.4,2.93Z"/>
        <g>
          <path class="cls-2" d="m556.95,105.54c-.4-.17-.81-.31-1.23-.43-3.13.92-5.96,2.67-8.24,4.99h4.42c1.06,0,2.03.17,2.92.52.88.35,1.64.83,2.27,1.46s1.12,1.39,1.46,2.27c.35.88.52,1.87.52,2.96v5.81c0,1.09-.17,2.08-.52,2.96-.35.88-.84,1.64-1.47,2.27-.64.63-1.4,1.12-2.28,1.46-.88.35-1.86.52-2.94.52h-7.42c-.76,0-1.47-.09-2.14-.26.39,1.99.98,3.93,1.72,5.77.14,0,.27,0,.41,0h7.47c1.82,0,3.51-.31,5.06-.94,1.55-.63,2.89-1.51,4.02-2.64,1.13-1.13,2.02-2.47,2.65-4.03.64-1.56.95-3.26.95-5.11v-5.81c0-1.84-.32-3.54-.95-5.1-.64-1.56-1.52-2.91-2.65-4.03-1.13-1.12-2.47-2-4.02-2.64Z"/>
          <path class="cls-1" d="m539.52,128.64c-.1-.09-.21-.19-.31-.28-.64-.63-1.13-1.39-1.47-2.27-.35-.88-.52-1.87-.52-2.96v-5.81c0-1.09.17-2.08.52-2.96.35-.88.84-1.64,1.47-2.27s1.4-1.12,2.28-1.46c.8-.31,1.69-.49,2.65-.51,1.79-2.24,3.97-4.12,6.44-5.52h-6.16c-1.82,0-3.51.32-5.07.95-1.56.64-2.9,1.52-4.03,2.64-1.13,1.12-2.02,2.47-2.66,4.03-.64,1.56-.97,3.26-.97,5.1v5.81c0,1.85.32,3.56.97,5.11.64,1.56,1.53,2.9,2.66,4.03,1.13,1.13,2.47,2.01,4.03,2.64.59.24,1.21.43,1.84.58-.79-2.19-1.35-4.49-1.68-6.85Z"/>
        </g>
        <path class="cls-2" d="m596.29,110.53h-22.1v24.9h-5.51v-27.64c0-.38.07-.74.21-1.08s.34-.64.58-.89.54-.45.88-.59.71-.21,1.1-.21h24.84v5.51Zm-2.46,12.47h-17.44v-5.56h17.44v5.56Z"/>
        <path class="cls-2" d="m630.22,110.53h-12.15v24.9h-5.51v-24.9h-12.18v-5.51h29.84v5.51Z"/>
      </g>
    </g>
    <g>
      <path class="cls-1" d="m315.78,128.34c0,.48-.06.99-.17,1.53-.11.54-.28,1.07-.52,1.6-.24.53-.54,1.04-.91,1.52-.37.48-.82.91-1.35,1.29-.53.37-1.14.67-1.83.89-.69.22-1.48.33-2.35.33h-9.2c-.48,0-.99-.06-1.53-.17-.54-.11-1.07-.28-1.6-.52-.53-.24-1.04-.54-1.52-.91-.48-.37-.91-.82-1.29-1.35-.37-.53-.67-1.14-.89-1.84-.22-.7-.33-1.49-.33-2.36v-23.01h5.1v23.01c0,.63.2,1.13.59,1.5.39.37.88.56,1.47.56h9.2c.64,0,1.14-.19,1.5-.57.36-.38.54-.88.54-1.49v-6.91c0-.64-.19-1.14-.57-1.5-.38-.36-.87-.54-1.47-.54h-9.2v-5.1h9.2c.48,0,.99.06,1.53.17.54.11,1.07.28,1.6.52.53.24,1.04.54,1.52.91.48.37.91.82,1.28,1.35.37.53.66,1.14.88,1.83.22.69.33,1.48.33,2.35v6.91Z"/>
      <path class="cls-1" d="m336.38,135.5h-9.2c-.73,0-1.51-.12-2.34-.37-.83-.25-1.61-.66-2.33-1.23-.72-.57-1.31-1.31-1.79-2.22s-.71-2.02-.71-3.35v-14.05h5.1v14.05c0,.67.18,1.18.53,1.53s.88.53,1.57.53h9.16v5.1Zm7.14,2.04c0,.88-.11,1.67-.33,2.36-.22.7-.52,1.31-.88,1.84-.37.53-.79.98-1.28,1.35-.48.37-.99.68-1.52.91-.53.24-1.06.41-1.6.52-.54.11-1.05.17-1.53.17h-9.2v-5.1h9.2c.68,0,1.19-.18,1.53-.53.34-.35.51-.86.51-1.53v-23.25h5.1v23.25Z"/>
    </g>
  </g>
  <rect id="Safezone-2" data-name="Safezone" class="cls-3" x="0" width="664.61" height="169.82"/>
</svg>