<?xml version="1.0" encoding="UTF-8"?>
<svg id="color" xmlns="http://www.w3.org/2000/svg" viewBox="0 0 524.63 120.45">
  <defs>
    <style>
      .cls-1 {
        fill: #254261;
      }

      .cls-2 {
        fill: #c73630;
      }

      .cls-3 {
        fill: none;
      }
    </style>
  </defs>
  <g id="Endysoft">
    <g>
      <g>
        <path class="cls-1" d="m81.31,86.06h-33.8c-1.3,0-2.71-.23-4.25-.68-1.54-.46-2.96-1.21-4.27-2.25s-2.4-2.4-3.28-4.07c-.88-1.67-1.32-3.72-1.32-6.14v-33.8c0-.65.12-1.26.36-1.84s.57-1.08.99-1.51.92-.77,1.5-1.01,1.2-.36,1.87-.36h42.2v9.37h-37.55v29.15c0,1.23.32,2.16.97,2.81s1.6.97,2.85.97h33.73v9.37Zm-4.22-21.12h-29.59v-9.44h29.59v9.44Z"/>
        <path class="cls-1" d="m140.09,82.06c0,.67-.13,1.3-.38,1.87s-.59,1.08-1.01,1.5-.92.75-1.5.99-1.19.36-1.84.36c-.58,0-1.16-.11-1.75-.32-.59-.22-1.11-.56-1.57-1.05l-34.24-35.75v36.4h-9.37v-47.68c0-.96.27-1.83.81-2.61.54-.78,1.23-1.36,2.07-1.75.89-.36,1.8-.45,2.74-.27.94.18,1.74.62,2.41,1.32l34.24,35.71v-36.4h9.37v47.68Z"/>
        <path class="cls-1" d="m198.88,64.44c0,3.15-.55,6.04-1.64,8.68s-2.6,4.92-4.52,6.83c-1.92,1.91-4.2,3.41-6.85,4.49-2.64,1.08-5.51,1.62-8.61,1.62h-25.3c-.67,0-1.3-.12-1.87-.36s-1.08-.57-1.5-.99-.75-.92-.99-1.5-.36-1.2-.36-1.87v-42.24c0-.65.12-1.26.36-1.84s.57-1.08.99-1.51.92-.77,1.5-1.01,1.2-.36,1.87-.36h25.3c3.1,0,5.97.54,8.61,1.62,2.64,1.08,4.93,2.58,6.85,4.49s3.43,4.19,4.52,6.85c1.09,2.65,1.64,5.54,1.64,8.67v8.43Zm-9.37-8.43c0-1.83-.29-3.5-.88-5.01-.59-1.51-1.42-2.8-2.5-3.87s-2.37-1.9-3.87-2.49c-1.5-.59-3.17-.88-4.99-.88h-20.65v32.94h20.65c1.83,0,3.49-.29,4.99-.88,1.5-.59,2.79-1.42,3.87-2.49s1.92-2.35,2.5-3.86c.59-1.5.88-3.18.88-5.03v-8.43Z"/>
        <path class="cls-1" d="m257.59,51.69c0,2.14-.27,4.05-.81,5.73-.54,1.68-1.26,3.17-2.14,4.45-.89,1.29-1.93,2.38-3.12,3.3-1.19.91-2.42,1.66-3.69,2.25-1.27.59-2.56,1.02-3.87,1.28-1.31.26-2.54.4-3.69.4h-3.78v16.97h-9.44v-16.97h-3.75c-1.15,0-2.38-.13-3.69-.4-1.31-.26-2.61-.69-3.89-1.28-1.29-.59-2.52-1.34-3.69-2.25s-2.22-2.01-3.12-3.3c-.9-1.29-1.62-2.77-2.16-4.47-.54-1.69-.81-3.6-.81-5.71v-17.3h9.37v17.3c0,1.23.19,2.32.58,3.3s.92,1.81,1.62,2.5c.7.7,1.54,1.23,2.54,1.6s2.11.56,3.33.56h16.9c.89-.14,1.8-.33,2.74-.56s1.79-.62,2.56-1.17,1.41-1.32,1.91-2.31c.5-.99.76-2.29.76-3.93v-17.3h9.37v17.3Z"/>
      </g>
      <g>
        <path class="cls-2" d="m315.83,70.86c0,1.85-.23,3.51-.7,4.99-.47,1.48-1.09,2.78-1.86,3.91-.77,1.13-1.67,2.09-2.7,2.88-1.03.79-2.1,1.44-3.21,1.95s-2.23.88-3.37,1.12-2.22.36-3.23.36h-36.15v-9.37h36.15c1.8,0,3.2-.53,4.2-1.59,1-1.06,1.5-2.47,1.5-4.25,0-.86-.13-1.66-.4-2.38-.26-.72-.64-1.35-1.14-1.87s-1.09-.94-1.8-1.23-1.5-.43-2.36-.43h-21.55c-1.51,0-3.15-.27-4.9-.81-1.75-.54-3.38-1.41-4.88-2.61s-2.75-2.77-3.75-4.72c-1-1.95-1.5-4.32-1.5-7.14s.5-5.18,1.5-7.12c1-1.93,2.25-3.51,3.75-4.72s3.13-2.09,4.88-2.63c1.75-.54,3.39-.81,4.9-.81h31.89v9.37h-31.89c-1.78,0-3.17.54-4.16,1.62s-1.5,2.51-1.5,4.29.5,3.23,1.5,4.27c1,1.05,2.38,1.57,4.16,1.57h21.62c1.01.02,2.08.16,3.21.41,1.13.25,2.25.64,3.37,1.17,1.12.53,2.18,1.2,3.19,2,1.01.8,1.9,1.77,2.68,2.9s1.4,2.43,1.86,3.89c.46,1.47.68,3.12.68,4.97Z"/>
        <g>
          <path class="cls-2" d="m365.76,35.29c-.69-.28-1.38-.52-2.1-.73-5.31,1.56-10.13,4.53-14.01,8.48h7.51c1.8,0,3.45.29,4.96.88,1.5.59,2.79,1.42,3.86,2.49s1.9,2.35,2.49,3.86c.59,1.5.88,3.18.88,5.03v9.87c0,1.85-.29,3.53-.88,5.03-.59,1.5-1.42,2.79-2.5,3.86-1.08,1.07-2.37,1.9-3.87,2.49-1.5.59-3.17.88-4.99.88h-12.61c-1.29,0-2.5-.15-3.63-.44.66,3.39,1.66,6.67,2.93,9.8.24,0,.46,0,.7,0h12.69c3.1,0,5.96-.53,8.59-1.6,2.63-1.07,4.91-2.56,6.83-4.49,1.92-1.92,3.42-4.2,4.5-6.85,1.08-2.64,1.62-5.54,1.62-8.68v-9.87c0-3.12-.54-6.01-1.62-8.67-1.08-2.65-2.58-4.94-4.5-6.85-1.92-1.91-4.2-3.41-6.83-4.49Z"/>
          <path class="cls-1" d="m336.14,74.53c-.18-.15-.36-.32-.52-.48-1.08-1.07-1.92-2.35-2.5-3.86-.59-1.5-.88-3.18-.88-5.03v-9.87c0-1.85.29-3.53.88-5.03.59-1.5,1.42-2.79,2.5-3.86s2.37-1.9,3.87-2.49c1.36-.53,2.88-.82,4.51-.87,3.03-3.8,6.75-7,10.94-9.38h-10.46c-3.1,0-5.97.54-8.61,1.62-2.64,1.08-4.93,2.58-6.85,4.49-1.92,1.91-3.43,4.19-4.52,6.85-1.09,2.65-1.64,5.54-1.64,8.67v9.87c0,3.15.55,6.04,1.64,8.68,1.09,2.64,2.6,4.93,4.52,6.85,1.92,1.92,4.2,3.42,6.85,4.49,1,.4,2.05.74,3.12.99-1.33-3.72-2.3-7.62-2.85-11.64Z"/>
        </g>
        <path class="cls-2" d="m432.59,43.76h-37.55v42.31h-9.37v-46.96c0-.65.12-1.26.36-1.84s.57-1.08.99-1.51c.42-.43.92-.77,1.5-1.01s1.2-.36,1.87-.36h42.2v9.37Zm-4.18,21.19h-29.62v-9.44h29.62v9.44Z"/>
        <path class="cls-2" d="m490.24,43.76h-20.65v42.31h-9.37v-42.31h-20.69v-9.37h50.7v9.37Z"/>
      </g>
    </g>
    <rect id="Safezone" class="cls-3" width="524.63" height="120.45"/>
  </g>
</svg>